<?xml version="1.0" encoding="utf-8"?>
<!-- Generator: Adobe Illustrator 16.0.3, SVG Export Plug-In . SVG Version: 6.00 Build 0)  -->
<!DOCTYPE svg PUBLIC "-//W3C//DTD SVG 1.1//EN" "http://www.w3.org/Graphics/SVG/1.1/DTD/svg11.dtd">
<svg version="1.1" id="Layer_1" xmlns="http://www.w3.org/2000/svg" xmlns:xlink="http://www.w3.org/1999/xlink" x="0px" y="0px"
	 width="80px" height="16px" viewBox="0 0 80 16" enable-background="new 0 0 80 16" xml:space="preserve">
<g>
	<path fill-rule="evenodd" clip-rule="evenodd" fill="#B4B4B5" d="M2.53,5.36v5.22h1.55c1.73,0,2.6-0.891,2.6-2.66
		c0-1.7-0.81-2.56-2.43-2.56H2.53z M0,3.39h4.42c0.74,0,1.3,0.03,1.68,0.11c0.59,0.11,1.09,0.33,1.52,0.67
		c1.1,0.86,1.65,2.17,1.65,3.94c0,1.361-0.41,2.451-1.21,3.27c-0.77,0.78-1.87,1.181-3.3,1.181H2.53V16H0V3.39z"/>
</g>
<g>
	<path fill-rule="evenodd" clip-rule="evenodd" fill="#B4B4B5" d="M11.14,2.45V0h2.53v2.45H11.14z M11.14,3.39h2.53v9.17h-2.53V3.39
		z"/>
</g>
<polygon fill="#B4B4B5" points="18.43,8.01 15.12,3.39 17.95,3.39 19.89,6.1 21.77,3.39 24.74,3.39 21.31,8.03 24.74,12.561 
	21.77,12.561 19.89,9.939 17.95,12.561 14.97,12.561 "/>
<g>
	<path fill="#B4B4B5" d="M33.57,6.98v1.98h-5.33c0,0.55,0.19,0.97,0.58,1.25c0.34,0.25,0.89,0.37,1.66,0.37h3.09v1.98H30.2
		c-1.31,0-2.34-0.291-3.08-0.86C26,10.85,25.45,9.57,25.45,7.86c0-1.11,0.29-2.08,0.88-2.91c0.75-1.04,1.97-1.56,3.69-1.56h3.55
		v1.97H30.2c-0.66,0-1.13,0.11-1.41,0.32c-0.3,0.24-0.49,0.67-0.55,1.3H33.57z"/>
</g>
<g>
	<rect x="35.62" fill="#B4B4B5" width="2.53" height="12.561"/>
</g>
<g>
	<path fill-rule="evenodd" clip-rule="evenodd" fill="#B4B4B5" d="M40.64,2.45V0h2.53v2.45H40.64z M40.64,3.39h2.53v9.17h-2.53V3.39
		z"/>
</g>
<g>
	<polygon fill="#B4B4B5" points="50.32,5.36 45.02,5.36 45.02,3.39 53.689,3.39 53.689,5.28 48.37,10.58 53.689,10.58 
		53.689,12.561 45.02,12.561 45.02,10.65 	"/>
</g>
<g>
	<path fill="#B4B4B5" d="M55.6,3.39h9.291c0.729,0,1.27,0.03,1.619,0.11c0.6,0.11,1.07,0.36,1.41,0.73
		c0.561,0.61,0.83,1.43,0.83,2.49v5.84h-2.529V7.13c0-0.72-0.101-1.18-0.32-1.39c-0.25-0.25-0.65-0.38-1.18-0.38H63.38v7.201h-2.53
		V5.36h-2.72v7.201H55.6V3.39z"/>
</g>
<g>
	<path fill-rule="evenodd" clip-rule="evenodd" fill="#B4B4B5" d="M77.471,8.96H74.13c-0.63-0.01-0.94,0.261-0.94,0.819
		c0,0.531,0.451,0.801,1.36,0.801h2.921V8.96z M77.471,6.98c0-0.66-0.16-1.11-0.471-1.33c-0.26-0.19-0.74-0.29-1.46-0.29H71.27V3.39
		h4.28c0.74,0,1.271,0.01,1.591,0.03c0.31,0.03,0.6,0.09,0.869,0.19C79.34,4.1,80,5.36,80,7.39v5.17h-5.33
		c-0.8,0-1.3-0.011-1.51-0.031c-0.62-0.059-1.09-0.199-1.43-0.42C70.98,11.62,70.6,10.87,70.6,9.84c0-0.58,0.141-1.11,0.41-1.58
		c0.29-0.51,0.7-0.86,1.211-1.05c0.439-0.15,1.149-0.23,2.149-0.23H77.471z"/>
</g>
</svg>
