<?xml version="1.0" encoding="utf-8"?>
<!-- Generator: Adobe Illustrator 16.0.3, SVG Export Plug-In . SVG Version: 6.00 Build 0)  -->
<!DOCTYPE svg PUBLIC "-//W3C//DTD SVG 1.1//EN" "http://www.w3.org/Graphics/SVG/1.1/DTD/svg11.dtd">
<svg version="1.1" id="Layer_1" xmlns="http://www.w3.org/2000/svg" xmlns:xlink="http://www.w3.org/1999/xlink" x="0px" y="0px"
	 width="21.846px" height="28.636px" viewBox="0 0 21.846 28.636" enable-background="new 0 0 21.846 28.636" xml:space="preserve">
<g>
	<g>
		<path fill="#E4E4E4" d="M9.671,19.321c-3.387,0-6.467-1.721-8.238-4.604C0.083,12.52-0.331,9.927,0.268,7.417
			s2.14-4.636,4.338-5.986C6.129,0.495,7.875,0,9.654,0c3.387,0,6.467,1.721,8.238,4.604c1.35,2.198,1.764,4.791,1.165,7.301
			s-2.14,4.636-4.339,5.986C13.196,18.827,11.45,19.321,9.671,19.321z M9.654,2c-1.41,0-2.793,0.393-4.001,1.135
			C3.91,4.206,2.688,5.892,2.213,7.882s-0.147,4.046,0.924,5.789c1.404,2.286,3.847,3.65,6.534,3.65
			c1.409,0,2.794-0.393,4.001-1.135c1.744-1.07,2.965-2.757,3.44-4.747s0.147-4.046-0.925-5.789C14.783,3.365,12.342,2,9.654,2z"/>
	</g>
	
		<rect x="17.025" y="17.541" transform="matrix(0.8519 -0.5237 0.5237 0.8519 -9.509 12.8771)" fill="#E4E4E4" width="1.979" height="11.422"/>
	
		<rect x="14.651" y="16.452" transform="matrix(0.853 -0.522 0.522 0.853 -7.3883 10.546)" fill="#E4E4E4" width="0.746" height="3.87"/>
</g>
</svg>
